NBA Statistics
…
My overall goal of this project is to see whether there is a relationship between having a tattoo and projected skill level. Because of this, I decided to use inner_join(), which keeps only the basketball players that appear in both datasets. Doing any other type of join would make no sense, because it would leave me with a combined dataset that contains players that I either don’t know their projected skill level, or don’t know whether or not they have tattoos. Doing this join got rid of 937 obervations, and left me with 396 observations, which is still a good size for this analysis.

tatdraft %>% filter(position == 'SG' & projected_spm > 1) %>% arrange(desc(projected_spm))

## # A tibble: 2 x 10
##   player position id    draft_year superstar starter role_player  bust
##   <chr>  <chr>    <chr>      <int>     <dbl>   <dbl>       <dbl> <dbl>
## 1 Victo~ SG       vict~       2013     0.160   0.429       0.175 0.236
## 2 Bradl~ SG       brad~       2012     0.133   0.492       0.137 0.238
## # ... with 2 more variables: projected_spm <dbl>, tattoos <lgl>

tatdraft %>% mutate(years_ex = 2020-draft_year) %>% select(1,5:11)

## # A tibble: 396 x 8
##    player     superstar starter role_player  bust projected_spm tattoos years_ex
##    <chr>          <dbl>   <dbl>       <dbl> <dbl>         <dbl> <lgl>      <dbl>
##  1 Josh Smith  0         0.0268       0.382 0.591      -1.19    TRUE           5
##  2 Marcus Th~  0.000489  0.0216       0.390 0.588      -1.20    TRUE           5
##  3 Victor Ol~  0.160     0.429        0.175 0.236       1.21    FALSE          7
##  4 Otto Port~  0.112     0.500        0.128 0.261       1.03    FALSE          7
##  5 Alex Len    0.0714    0.401        0.246 0.282       0.555   FALSE          7
##  6 Anthony B~  0.0659    0.387        0.203 0.344       0.338   TRUE           7
##  7 Ben McLem~  0.0575    0.405        0.188 0.350       0.324   TRUE           7
##  8 Cody Zell~  0.0162    0.356        0.375 0.253       0.238   FALSE          7
##  9 Michael C~  0.0315    0.314        0.269 0.385       0.0241  FALSE          7
## 10 Kentaviou~  0.0314    0.322        0.263 0.384       0.00346 TRUE           7
## # ... with 386 more rows
…
#projected_spm
tatdraft %>% summarize(var(projected_spm))

## # A tibble: 1 x 1
##   `var(projected_spm)`
##                  <dbl>
## 1                0.411

tatdraft %>% group_by(draft_year,position) %>% summarize(sd_spm=sd(projected_spm)) %>% 
  na.omit() %>% arrange(desc(sd_spm))

## # A tibble: 62 x 3
## # Groups:   draft_year [13]
##    draft_year position sd_spm
##         <int> <chr>     <dbl>
##  1       2003 C         1.34 
##  2       2002 PG        1.25 
##  3       2001 SG        1.06 
##  4       2005 PG        0.996
##  5       2001 SF        0.970
##  6       2009 C         0.915
##  7       2006 PF        0.915
##  8       2012 PF        0.893
##  9       2005 SF        0.873
## 10       2003 SG        0.799
## # ... with 52 more rows
…
#bust
tatdraft %>% summarize(IQR(bust))

## # A tibble: 1 x 1
##   `IQR(bust)`
##         <dbl>
## 1       0.170

tatdraft %>% group_by(position,draft_year) %>% summarize(IQR(bust))

## # A tibble: 66 x 3
## # Groups:   position [5]
##    position draft_year `IQR(bust)`
##    <chr>         <int>       <dbl>
##  1 C              2001      0.0320
##  2 C              2002      0     
##  3 C              2003      0.231 
##  4 C              2005      0.0129
##  5 C              2006      0.131 
##  6 C              2007      0.130 
##  7 C              2008      0.0569
##  8 C              2009      0.149 
##  9 C              2010      0.186 
## 10 C              2011      0.0517
## # ... with 56 more rows
…
